…
For some example data I hopped on to kaggle.com and grabed a recent dataset about some behives that looked interesting. For the purpose of this exercise I’m going to calculate the average daily temperature and bee departures so that we can easily merge the two together.

temp <- read_csv("data/temperature_schwartau.csv")

## Parsed with column specification:
## cols(
##   timestamp = col_datetime(format = ""),
##   temperature = col_double()
## )

temp

## # A tibble: 253,430 x 2
##    timestamp           temperature
##    <dttm>                    <dbl>
##  1 2017-01-01 14:10:00        NA  
##  2 2017-01-01 14:15:00        12.3
##  3 2017-01-01 14:20:00        12.3
##  4 2017-01-01 14:25:00        12.3
##  5 2017-01-01 14:30:00        12.4
##  6 2017-01-01 14:35:00        12.4
##  7 2017-01-01 14:40:00        12.5
##  8 2017-01-01 14:45:00        12.5
##  9 2017-01-01 14:50:00        12.5
## 10 2017-01-01 14:55:00        12.5
## # ... with 253,420 more rows

flow <- read_csv("data/flow_schwartau.csv")

## Parsed with column specification:
## cols(
##   timestamp = col_datetime(format = ""),
##   flow = col_double()
## )

flow

## # A tibble: 2,513,836 x 2
##    timestamp            flow
##    <dttm>              <dbl>
##  1 2017-01-01 14:15:00     0
##  2 2017-01-01 14:16:00     0
##  3 2017-01-01 14:17:00     0
##  4 2017-01-01 14:18:00     0
##  5 2017-01-01 14:19:00     0
##  6 2017-01-01 14:20:00     0
##  7 2017-01-01 14:21:00     0
##  8 2017-01-01 14:22:00     0
##  9 2017-01-01 14:23:00     0
## 10 2017-01-01 14:24:00     0
## # ... with 2,513,826 more rows
…
