…
This post is a follow-up two my two recent posts on generating control charts in R, and animating them. One thing that I’ve been wondering about is how to calculate a range chart without using a package like ggQC or qcc. I knew that I could do it using a loop, but I was looking for a dplyr method when I stumbled on the dplyr::lag() function in this article on stackoverflow. It should work like a charm!

First, let’s load the tidyverse and generate some sample data.

library(tidyverse)

set.seed(1558635665)
control_chart_tibble <- tibble(x = rnorm(n = 30, mean = 25, sd = .005))
control_chart_tibble

## # A tibble: 30 x 1
##        x
##    <dbl>
##  1  25.0
##  2  25.0
##  3  25.0
##  4  25.0
##  5  25.0
##  6  25.0
##  7  25.0
##  8  25.0
##  9  25.0
## 10  25.0
## # ... with 20 more rows

Now we can use the lag() function to calculate the range between each row.

control_chart_tibble <- control_chart_tibble %>%
  mutate(mr = abs(x - lag(x, 1)))
control_chart_tibble

## # A tibble: 30 x 2
##        x        mr
##    <dbl>     <dbl>
##  1  25.0 NA       
##  2  25.0  0.0118  
##  3  25.0  0.00396 
##  4  25.0  0.000981
##  5  25.0  0.00289 
##  6  25.0  0.00344 
##  7  25.0  0.00420 
##  8  25.0  0.00482 
##  9  25.0  0.00306 
## 10  25.0  0.000677
## # ... with 20 more rows
…
